{
  "builders": [
    {
      "boot_command": [
        "<tab> text ks=http://{{ .HTTPIP }}:{{ .HTTPPort }}/{{user `ks_path`}}<enter><wait>"
      ],
      "boot_wait": "10s",
      "disk_size": "{{user `disk_size`}}",
      "guest_additions_path": "VBoxGuestAdditions_{{.Version}}.iso",
      "guest_os_type": "RedHat_64",
      "hard_drive_interface": "sata",
      "headless": "{{ user `headless` }}",
      "http_directory": "http",
      "iso_checksum": "{{user `iso_checksum`}}",
      "iso_checksum_type": "{{user `iso_checksum_type`}}",
      "iso_url": "{{user `mirror`}}/{{user `mirror_directory`}}/{{user `iso_name`}}",
      "output_directory": "packer-{{user `template`}}-virtualbox",
      "shutdown_command": "echo 'vagrant' | sudo -S /sbin/halt -h -p",
      "ssh_password": "vagrant",
      "ssh_port": 22,
      "ssh_username": "vagrant",
      "ssh_wait_timeout": "10000s",
      "type": "virtualbox-iso",
      "vboxmanage": [
        [
          "modifyvm",
          "{{.Name}}",
          "--memory",
          "{{ user `memory` }}"
        ],
        [
          "modifyvm",
          "{{.Name}}",
          "--cpus",
          "{{ user `cpus` }}"
        ]
      ],
      "virtualbox_version_file": ".vbox_version",
      "vm_name": "{{ user `template` }}"
    },
    {
      "boot_command": [
        "<tab> text ks=http://{{ .HTTPIP }}:{{ .HTTPPort }}/{{user `ks_path`}}<enter><wait>"
      ],
      "boot_wait": "10s",
      "disk_size": "{{user `disk_size`}}",
      "headless": "{{ user `headless` }}",
      "http_directory": "http",
      "iso_checksum": "{{user `iso_checksum`}}",
      "iso_checksum_type": "{{user `iso_checksum_type`}}",
      "iso_url": "{{user `mirror`}}/{{user `mirror_directory`}}/{{user `iso_name`}}",
      "output_directory": "packer-{{user `template`}}-qemu",
      "shutdown_command": "echo 'stagiaire'|sudo -S /sbin/halt -h -p",
      "ssh_password": "vagrant",
      "ssh_port": 22,
      "ssh_username": "vagrant",
      "ssh_wait_timeout": "10000s",
      "type": "qemu",
      "vm_name": "{{ user `template` }}"
    }
  ],
  "post-processors": [
    {
      "output": "builds/{{user `box_basename`}}.{{.Provider}}.box",
      "type": "vagrant"
    }
  ],
  "provisioners": [
    {
      "destination": "/tmp/metadata.json",
      "source": "{{user `metadata`}}",
      "type": "file"
    },
    {
      "environment_vars": [
        "HOME_DIR=/home/vagrant",
        "http_proxy={{user `http_proxy`}}",
        "https_proxy={{user `https_proxy`}}",
        "no_proxy={{user `no_proxy`}}"
      ],
      "execute_command": "echo 'vagrant' | {{.Vars}} sudo -S -E sh -eux '{{.Path}}'",
      "scripts": [
        "scripts/common/metadata.sh",
        "scripts/common/sshd.sh",
        "scripts/centos/networking.sh",
        "scripts/common/vagrant.sh",
        "scripts/common/virtualbox.sh",
        "scripts/centos/cleanup.sh",
        "scripts/common/minimize.sh",
	"scripts/common/formatux.sh"
      ],
      "type": "shell"
    }
  ],
  "variables": {
    "box_basename": "centos-7.3-admin",
    "build_timestamp": "{{isotime \"20060102150405\"}}",
    "cpus": "1",
    "disk_size": "20430",
    "git_revision": "__unknown_git_revision__",
    "headless": "",
    "http_proxy": "{{env `http_proxy`}}",
    "https_proxy": "{{env `https_proxy`}}",
    "iso_checksum": "c455ee948e872ad2194bdddd39045b83634e8613249182b88f549bb2319d97eb",
    "iso_checksum_type": "sha256",
    "iso_name": "CentOS-7-x86_64-DVD-1611.iso",
    "ks_path": "centos-7.3/ks.cfg",
    "memory": "1024",
    "metadata": "floppy/dummy_metadata.json",
    "mirror": "http://mirrors.kernel.org/centos",
    "mirror_directory": "7.3.1611/isos/x86_64",
    "name": "formatux-admin-centos-7.3",
    "no_proxy": "{{env `no_proxy`}}",
    "template": "centos-7.3-x86_64",
    "version": "TIMESTAMP"
  }
}

